{
  "patients": [
    {
      "ktp": "1000082929282",
      "name": "Windu",
      "birth_place": "Batam",
      "birth_date": "12/07/1997",
      "address": "Jl. Tugu Pahlawan",
      "phone": "081230098833"
    },

    {
      "ktp": "1000003777222",
      "name": "Ahmad",
      "birth_place": "Jakarta",
      "birth_date": "11/01/1995",
      "address": "Jl. Medan Merdeka",
      "phone": "087866001122"
    }
  ]
}